com\files\DAO\MainDAO.class
com\files\controllers\DateRangeController.class
com\files\service\HourlyChartProcessor$1.class
com\files\service\MainChartService.class
com\files\ChartApplication.class
com\files\service\DateRangeChartProcessor$2.class
com\files\models\AllTransactions.class
META-INF\spring-configuration-metadata.json
com\files\service\MainChartProcessor$4.class
com\files\models\TransactionCalculated.class
com\files\security\SecurityConfig.class
com\files\service\DateRangeChartProcessor.class
com\files\service\DateRangeChartProcessor$1.class
com\files\models\ErrorAdvisoryCode.class
com\files\security\WebSecurityConfig.class
com\files\service\MainChartProcessor$3.class
com\files\service\DateRangeChartProcessor$4.class
com\files\service\MainChartProcessor.class
com\files\controllers\MainDayController.class
com\files\models\TransactionTimeSize.class
com\files\service\DateRangeChartService.class
com\files\service\DateRangeChartProcessor$3.class
com\files\service\MainChartProcessor$2.class
com\files\models\HourSlot.class
com\files\service\MainChartProcessor$1.class
com\files\controllers\HourController.class
com\files\config\DateExtension.class
com\files\service\HourlyChartProcessor.class
com\files\DAO\HourlyDAO.class
com\files\DAO\RangeDAO.class
